{
  "project_info": {
    "project_number": "83714152575",
    "firebase_url": "https://temu-a6ded.firebaseio.com",
    "project_id": "temu-a6ded",
    "storage_bucket": "temu-a6ded.appspot.com"
  },
  "client": [
    {
      "client_info": {
        "mobilesdk_app_id": "1:83714152575:android:764d2cb7da3280eb",
        "android_client_info": {
          "package_name": "io.ionic.starter"
        }
      },
      "oauth_client": [
        {
          "client_id": "83714152575-ov281h34i4jnrab7epo9ov89iqt6j7ab.apps.googleusercontent.com",
          "client_type": 3
        }
      ],
      "api_key": [
        {
          "current_key": "AIzaSyCK-xkc0Lzy9wfGQr93r_fu38pB7X_j7tk"
        }
      ],
      "services": {
        "analytics_service": {
          "status": 1
        },
        "appinvite_service": {
          "status": 1,
          "other_platform_oauth_client": []
        },
        "ads_service": {
          "status": 2
        }
      }
    }
  ],
  "configuration_version": "1"
}